58849,7564.664610131127,0,87.90000000000001,0,0,0,150,1.84,1.84,1.28,1
58849,7564.664610131127,0,87.90000000000001,0,0,6.55,150,1.84,1.84,1.28,1
58849,7564.664610131127,0,87.90000000000001,0,0,13.09,150,1.84,1.84,1.28,1
58849,7564.664610131127,0,87.90000000000001,0,0,19.64,150,1.84,1.84,1.28,1
58849,7564.664610131127,0,87.90000000000001,0,0,26.18,150,1.84,1.84,1.28,1
58849,7564.664610131127,0,87.90000000000001,0,0,32.73,150,1.84,1.84,1.28,1
58849,7564.664610131127,0,87.90000000000001,0,0,39.27,150,1.84,1.84,1.28,1
58849,7564.664610131127,0,87.90000000000001,0,0,45.82,150,1.84,1.84,1.28,1
58849,7564.664610131127,0,87.90000000000001,0,0,52.36,150,1.84,1.84,1.28,1
58849,7564.664610131127,0,87.90000000000001,0,0,58.91,150,1.84,1.84,1.28,1
58849,7564.664610131127,0,87.90000000000001,0,0,65.45,150,1.84,1.84,1.28,1
58849,7564.664610131127,0,87.90000000000001,0,0,72,150,1.84,1.84,1.28,1
58849,7564.664610131127,0,87.90000000000001,0,0,78.55,150,1.84,1.84,1.28,1
58849,7564.664610131127,0,87.90000000000001,0,0,85.09,150,1.84,1.84,1.28,1
58849,7564.664610131127,0,87.90000000000001,0,0,91.64,150,1.84,1.84,1.28,1
58849,7564.664610131127,0,87.90000000000001,0,0,98.18000000000001,150,1.84,1.84,1.28,1
58849,7564.664610131127,0,87.90000000000001,0,0,104.73,150,1.84,1.84,1.28,1
58849,7564.664610131127,0,87.90000000000001,0,0,111.27,150,1.84,1.84,1.28,1
58849,7564.664610131127,0,87.90000000000001,0,0,117.82,150,1.84,1.84,1.28,1
58849,7564.664610131127,0,87.90000000000001,0,0,124.36,150,1.84,1.84,1.28,1
58849,7564.664610131127,0,87.90000000000001,0,0,130.91,150,1.84,1.84,1.28,1
58849,7564.664610131127,0,87.90000000000001,0,0,137.45,150,1.84,1.84,1.28,1
58849,7564.664610131127,0,87.90000000000001,0,0,144,150,1.84,1.84,1.28,1
58849,7564.664610131127,0,87.90000000000001,0,0,150.55,150,1.84,1.84,1.28,1
58849,7564.664610131127,0,87.90000000000001,0,0,157.09,150,1.84,1.84,1.28,1
58849,7564.664610131127,0,87.90000000000001,0,0,163.64,150,1.84,1.84,1.28,1
58849,7564.664610131127,0,87.90000000000001,0,0,170.18,150,1.84,1.84,1.28,1
58849,7564.664610131127,0,87.90000000000001,0,0,176.73,150,1.84,1.84,1.28,1
58849,7564.664610131127,0,87.90000000000001,0,0,183.27,150,1.84,1.84,1.28,1
58849,7564.664610131127,0,87.90000000000001,0,0,189.82,150,1.84,1.84,1.28,1
58849,7564.664610131127,0,87.90000000000001,0,0,196.36,150,1.84,1.84,1.28,1
58849,7564.664610131127,0,87.90000000000001,0,0,202.91,150,1.84,1.84,1.28,1
58849,7564.664610131127,0,87.90000000000001,0,0,209.45,150,1.84,1.84,1.28,1
58849,7564.664610131127,0,87.90000000000001,0,0,216,150,1.84,1.84,1.28,1
58849,7564.664610131127,0,87.90000000000001,0,0,222.55,150,1.84,1.84,1.28,1
58849,7564.664610131127,0,87.90000000000001,0,0,229.09,150,1.84,1.84,1.28,1
58849,7564.664610131127,0,87.90000000000001,0,0,235.64,150,1.84,1.84,1.28,1
58849,7564.664610131127,0,87.90000000000001,0,0,242.18,150,1.84,1.84,1.28,1
58849,7564.664610131127,0,87.90000000000001,0,0,248.73,150,1.84,1.84,1.28,1
58849,7564.664610131127,0,87.90000000000001,0,0,255.27,150,1.84,1.84,1.28,1
58849,7564.664610131127,0,87.90000000000001,0,0,261.82,150,1.84,1.84,1.28,1
58849,7564.664610131127,0,87.90000000000001,0,0,268.36,150,1.84,1.84,1.28,1
58849,7564.664610131127,0,87.90000000000001,0,0,274.91,150,1.84,1.84,1.28,1
58849,7564.664610131127,0,87.90000000000001,0,0,281.45,150,1.84,1.84,1.28,1
58849,7564.664610131127,0,87.90000000000001,0,0,288,150,1.84,1.84,1.28,1
58849,7564.664610131127,0,87.90000000000001,0,0,294.55,150,1.84,1.84,1.28,1
58849,7564.664610131127,0,87.90000000000001,0,0,301.09,150,1.84,1.84,1.28,1
58849,7564.664610131127,0,87.90000000000001,0,0,307.64,150,1.84,1.84,1.28,1
58849,7564.664610131127,0,87.90000000000001,0,0,314.18,150,1.84,1.84,1.28,1
58849,7564.664610131127,0,87.90000000000001,0,0,320.73,150,1.84,1.84,1.28,1
58849,7564.664610131127,0,87.90000000000001,0,0,327.27,150,1.84,1.84,1.28,1
58849,7564.664610131127,0,87.90000000000001,0,0,333.82,150,1.84,1.84,1.28,1
58849,7564.664610131127,0,87.90000000000001,0,0,353.45,150,1.84,1.84,1.28,1
58849,7564.664610131127,0,87.90000000000001,0,0,346.91,150,1.84,1.84,1.28,1
58849,7564.664610131127,0,87.90000000000001,0,0,340.36,150,1.84,1.84,1.28,1
